{
  "project_info": {
    "project_number": "317997130835",
    "project_id": "todoapp-cf747",
    "storage_bucket": "todoapp-cf747.appspot.com"
  },
  "client": [
    {
      "client_info": {
        "mobilesdk_app_id": "1:317997130835:android:025e297303ab9c000652a6",
        "android_client_info": {
          "package_name": "phunguyen.totodo"
        }
      },
      "oauth_client": [
        {
          "client_id": "317997130835-a9jhi55769fmlg2t1dgcfehdreqnq778.apps.googleusercontent.com",
          "client_type": 1,
          "android_info": {
            "package_name": "phunguyen.totodo",
            "certificate_hash": "8cc571207dd6b11c9bb7561bcf8baddcb0aa2823"
          }
        },
        {
          "client_id": "317997130835-prd4nt2vtm8a0rkmrg32lq0r6g08cb92.apps.googleusercontent.com",
          "client_type": 3
        }
      ],
      "api_key": [
        {
          "current_key": "AIzaSyAdPLobCBsTEE21BLI6TsWxNcnPt4xGTY0"
        }
      ],
      "services": {
        "appinvite_service": {
          "other_platform_oauth_client": [
            {
              "client_id": "317997130835-prd4nt2vtm8a0rkmrg32lq0r6g08cb92.apps.googleusercontent.com",
              "client_type": 3
            }
          ]
        }
      }
    }
  ],
  "configuration_version": "1"
}